…
```r
train_data %>% 
  count(subject)
```

```
## # A tibble: 21 × 2
##    subject     n
##      <dbl> <int>
##  1       1   347
##  2       3   341
##  3       5   302
##  4       6   325
##  5       7   308
##  6       8   281
##  7      11   316
##  8      14   323
##  9      15   328
## 10      16   366
## # … with 11 more rows
## # ℹ Use `print(n = ...)` to see more rows
```
…
